Start,End,Speed,DownSpeed,Start (miles),End (miles),Speed (mph),DownSpeed (mph),Comments
0,8690.436,112.6538,,185.1,190.5,70,,
0,965.604,48.2802,,185.1,185.7,30,,"Platforms + ""Cv East of Providence"""
482.802,2092.142,96.5604,,185.4,186.4,60,,
5793.624,6598.294,96.5604,,188.7,189.2,60,,
7081.096,8690.436,96.5604,,189.5,190.5,60,,
8690.436,15127.796,201.1675,,190.5,194.5,125,,
13196.588,15127.796,177.0274,,193.3,194.5,110,,"""Cv Hebronville & MP 194.5"""
15127.796,32025.866,241.401,,194.5,205,150,,
32025.866,53751.956,209.2142,,205,218.5,130,,"""Transfer"" = MP 218.5"
34600.81,35244.546,201.1675,,206.6,207,125,,
44900.586,46188.058,201.1675,,213,213.8,125,,
53751.956,67431.346,193.1208,,218.5,227,120,,
59545.58,59867.448,,185.0741,222.1,222.3,,115,
67431.346,69040.686,96.5604,,227,228,60,,
67914.148,67914.148,48.2802,,227.3,227.3,30,,Curves
69040.686,69040.686,48.2802,,228,228,30,,
69040.686,69523.488,48.2802,,228,228.3,30,,"Best guess at meaning of ""Within Limits Cove"""
69523.488,69845.356,24.1401,,228.3,228.5,15,,"""East Limits Cove & Tower 1"""
69845.356,70167.224,16.0934,,228.5,228.7,10,,"""Tower 1 & Boston"""
